-------------------------------------------------------------------------------
Test set: fr.taydji.AppTest
-------------------------------------------------------------------------------
Tests run: 1, Failures: 0, Errors: 0, Skipped: 0, Time elapsed: 0.043 s - in fr.taydji.AppTest
